<?xml version="1.0" standalone="no"?>
<!DOCTYPE svg PUBLIC "-//W3C//DTD SVG 1.1//EN" "http://www.w3.org/Graphics/SVG/1.1/DTD/svg11.dtd">
<svg xmlns="http://www.w3.org/2000/svg"><defs><font id="flaticon" horiz-adv-x="512"><font-face units-per-em="512" ascent="448" descent="-64" x-height="240" cap-height="480"/><missing-glyph horiz-adv-x="512"/><glyph unicode="&#xE000;" glyph-name="arrow277" horiz-adv-x="743" d="M371.70010559662 -64L3.4466737064414 420.86589229145c-5.6430834213305 7.4340021119324 -4.2238648363252 18.010559662091 3.2439281942978 23.653643083421c7.4340021119324 5.6768743400211 18.010559662091 4.2238648363252 23.653643083421 -3.2439281942978L371.70010559662 -8.1436114044351l341.35586061246 449.41921858501 c5.6430834213305 7.467793030623 16.219640971489 8.9208025343189 23.653643083421 3.2439281942978c7.4340021119324 -5.6430834213305 8.8870116156283 -16.219640971489 3.2439281942978 -23.653643083421L371.70010559662 -64z"/><glyph unicode="&#xE001;" glyph-name="arrow371" horiz-adv-x="512" d="M310.83229138353 448c-6.401739603153 0 -11.597354353538 -5.1956147503851 -11.597354353538 -11.597354353538c0 -6.401739603153 5.1956147503851 -11.597354353538 11.597354353538 -11.597354353538h161.55114614479L200.54145148138 152.96330524599c-4.5229681978799 -4.5229681978799 -4.5229681978799 -11.875690858023 0 -16.398659055903 C202.81453293467 134.29156473679 205.78345564918 133.17821871885 208.75237836369 133.17821871885c2.9689227145058 0 5.9378454290115 1.1365407266467 8.210926882305 3.3864274712331l271.84198604693 271.84198604693v-161.55114614479c0 -6.401739603153 5.1956147503851 -11.597354353538 11.597354353538 -11.597354353538 s11.597354353538 5.1956147503851 11.597354353538 11.597354353538V448H310.83229138353zM400.78137174957 -40.782096584217L23.194708707076 -40.805291292924L23.194708707076 336.78137174957L307.86336866902 336.78137174957L307.86336866902 359.97608045665L0 359.97608045665L0 -64L423.97608045665 -63.976805291293L423.97608045665 243.88656337773L400.78137174957 243.88656337773Z"/><glyph unicode="&#xE002;" glyph-name="bookmark" horiz-adv-x="512" d="M253.792 399.872l66.528 -134.784l148.672 -21.6L361.376 138.56l25.44 -148.064l-133.024 69.952 l-132.992 -69.952L146.208 138.56L38.624 243.488l148.672 21.6L253.792 399.872z"/><glyph unicode="&#xE003;" glyph-name="cogwheel" horiz-adv-x="512" d="M462.75657142857 192c0 31.920761904762 19.651047619048 57.124571428571 49.243428571429 74.441142857143c-5.3272380952381 17.816380952381 -12.391619047619 34.883047619048 -21.083428571429 50.95619047619c-33.182476190476 -8.6857142857143 -60.04419047619 4.3154285714286 -82.620952380952 26.89219047619 s-29.488761904762 49.444571428571 -20.803047619048 82.620952380952C371.43161904762 435.60838095238 354.36495238095 442.67276190476 336.53638095238 448C319.21371428571 418.40152380952 287.92685714286 398.75657142857 256 398.75657142857 c-31.920761904762 0 -63.207619047619 19.644952380952 -80.536380952381 49.243428571429c-17.816380952381 -5.3211428571429 -34.883047619048 -12.391619047619 -50.950095238095 -21.077333333333c8.679619047619 -33.182476190476 1.7737142857143 -60.050285714286 -20.803047619048 -82.633142857143 c-22.576761904762 -22.576761904762 -49.444571428571 -35.577904761905 -82.627047619048 -26.904380952381C12.391619047619 301.33028571429 5.3272380952381 284.26361904762 0 266.44114285714C29.592380952381 249.12457142857 49.243428571429 223.92076190476 49.243428571429 192 S29.592380952381 128.78628571429 0 111.46971428571c5.3272380952381 -17.822476190476 12.391619047619 -34.889142857143 21.083428571429 -50.962285714286c33.182476190476 8.6857142857143 60.050285714286 1.7737142857143 82.627047619048 -20.803047619048 c22.570666666667 -22.582857142857 29.482666666667 -49.438476190476 20.803047619048 -82.620952380952c16.067047619048 -8.6857142857143 33.133714285714 -15.762285714286 50.95619047619 -21.077333333333c17.328761904762 29.592380952381 48.609523809524 49.249523809524 80.530285714286 49.249523809524 c31.926857142857 0 63.213714285714 -19.657142857143 80.536380952381 -49.249523809524c17.828571428571 5.3272380952381 34.895238095238 12.391619047619 50.962285714286 21.089523809524c-8.679619047619 33.170285714286 -1.7798095238095 60.032 20.796952380952 82.614857142857 c22.576761904762 22.576761904762 49.438476190476 35.584 82.620952380952 26.898285714286c8.6918095238095 16.073142857143 15.75619047619 33.13980952381 21.083428571429 50.962285714286C482.40761904762 134.88152380952 462.75657142857 160.07923809524 462.75657142857 192zM256 80.664380952381 c-61.482666666667 0 -111.32952380952 49.846857142857 -111.32952380952 111.33561904762c0 61.488761904762 49.840761904762 111.33561904762 111.32952380952 111.33561904762c61.488761904762 0 111.32952380952 -49.846857142857 111.32952380952 -111.33561904762 C367.32952380952 130.51733333333 317.48876190476 80.664380952381 256 80.664380952381z"/><glyph unicode="&#xE004;" glyph-name="cube1" horiz-adv-x="512" d="M123.328 264.064l24.072 -262.592C147.848 -3.504 152.264 -8 157.256 -8h197.488c4.992 0 9.408 5.032 9.864 10l24.072 261.568 C389.128 268.536 385.456 272 380.464 272H131.536C126.544 272 122.872 269.032 123.328 264.064zM224 73.04c0 -4.992 -4.048 -9.04 -9.04 -9.04H209.04C204.048 64 200 68.048 200 73.04V206.96 c0 4.992 4.048 9.04 9.04 9.04h5.928c4.992 0 9.04 -4.048 9.04 -9.04V73.04zM304 73.04c0 -4.992 -4.048 -9.04 -9.04 -9.04H289.04C284.048 64 280 68.048 280 73.04V206.96 c0 4.992 4.048 9.04 9.04 9.04h5.928c4.992 0 9.04 -4.048 9.04 -9.04V73.04zM384.136 352h-78.584C293.224 368 275.6 374.264 256 374.264S218.776 368 206.44 352h-78.584c-4.992 0 -8.8 -2.312 -8.512 -7.296l2.624 -42.448 C122.264 297.272 126.544 296 131.536 296h248.928c4.992 0 9.272 2.136 9.56 7.12l2.624 42.536C392.944 350.64 389.128 352 384.136 352z"/><glyph unicode="&#xE005;" glyph-name="download55" horiz-adv-x="791" d="M404.62828373461 -54.965156273366l133.27670604656 133.25118388914c4.9512985394547 4.9768206968745 4.9512985394547 13.067344598973 0 18.044165295848c-4.9768206968745 4.9768206968745 -13.092866756393 4.9768206968745 -18.044165295848 0l-111.48078360999 -111.48078360999V209.64857185584 c0 7.044115447884 -5.7424854194706 12.761078709935 -12.761078709935 12.761078709935s-12.761078709935 -5.7169632620507 -12.761078709935 -12.761078709935v-224.79916255421l-111.48078360999 111.48078360999c-4.9512985394547 4.9768206968745 -13.067344598973 4.9768206968745 -18.044165295848 0 c-4.9512985394547 -4.9768206968745 -4.9512985394547 -13.067344598973 0 -18.044165295848l133.27670604656 -133.25118388914c0 0 0 0 0.051044314839739 -0.025522157419869l9.0093215692139 -9.0093215692139l9.0093215692139 9.0093215692139 C404.62828373461 -54.965156273366 404.62828373461 -54.965156273366 404.62828373461 -54.965156273366zM646.14445939883 300.76267384477C614.72668361497 389.14590498978 531.75414984298 448 437.29664523204 448c-88.970240765665 0 -169.08429290663 -53.545486266886 -203.7178605254 -134.68042470465c-16.308658591297 7.5290364388615 -34.046557998106 11.484970838941 -52.039678979114 11.484970838941 c-68.629081302029 0 -124.57365036638 -55.791436119835 -124.67573899606 -124.42051742186C21.132346343652 173.10084243059 0 130.65749464134 0 85.534320323015c0 -79.527042520313 64.851802003888 -144.22571157968 146.75240516425 -144.2512337371 c0.9187976671153 0 1.8120731768107 -0.025522157419869 2.6543043716664 -0.025522157419869s1.6078959174518 0 2.2459498529485 0.051044314839739h134.50176960271c7.0185932904641 0 12.761078709935 5.7169632620507 12.761078709935 12.761078709935c0 7.044115447884 -5.7424854194706 12.761078709935 -12.761078709935 12.761078709935H150.98908329595 c-1.2761078709935 -0.051044314839739 -2.5266935845671 -0.025522157419869 -3.7517571407208 0l-2.6543043716664 0.025522157419869C78.940032899656 -33.143711679378 25.522157419869 20.09550869847 25.522157419869 85.559842480435c0 39.12546732466 19.294751009421 75.775285379592 51.605802302976 98.056128807138l5.8445740491501 5.4872638452719 L82.462090623598 196.35152784009C82.411046308758 197.60211355366 82.334479836499 198.85269926723 82.334479836499 200.12880713823c0 54.66846119336 44.459598225412 99.153581576193 99.153581576193 99.153581576193c18.350431184886 0 36.318030008474 -5.1554757988136 51.988634664274 -14.879417775784l13.526743432531 -8.3712676337172 l5.2320422710732 15.007028562883C279.74836747919 369.67249887842 354.09441204327 422.47784258013 437.2456009172 422.47784258013c85.856537560441 0 161.01929116196 -54.949204924979 186.97532525796 -136.77324161308l2.3735606400479 -7.4779921240217l7.7587358556403 -1.2505857135736 c76.056029111211 -12.301679876377 131.31149992523 -77.127959722845 131.31149992523 -154.15383081601c0 -86.03519266238 -70.160410747221 -156.01694830766 -156.37425851154 -156.01694830766h-104.25801306017c-7.044115447884 0 -12.761078709935 -5.7169632620507 -12.761078709935 -12.761078709935c0 -7.044115447884 5.7169632620507 -12.761078709935 12.761078709935 -12.761078709935 h104.25801306017c100.30207866009 0 181.89641593141 81.441204326803 181.89641593141 181.53910572753C791.21240217337 209.82722695778 730.67384477344 283.4586511141 646.14445939883 300.76267384477z"/><glyph unicode="&#xE006;" glyph-name="edit26" horiz-adv-x="512" d="M466.91328 242.40128l-24.93952 -24.94464L372.48512 286.94016l24.94464 24.94464c7.8592 7.8592 19.67616 8.832 26.3424 2.17088l45.312 -45.31712 C475.74528 262.07744 474.77248 250.26048 466.91328 242.40128zM360.90368 275.36384L430.39232 205.8752L264.69376 40.17664c-0.76288 -0.76288 -2.87232 -2.8672 -5.83168 -3.62496 c-0.34304 -0.16384 -0.6912 -0.30208 -1.03936 -0.41472l-86.4768 -27.55584c-2.42176 -0.768 -4.85376 -0.27648 -6.43072 1.3056c-1.58208 1.58208 -2.0736 4.01408 -1.31584 6.43072 l27.56096 86.46656c0.11776 0.3584 0.256 0.70656 0.41472 1.03936c0.75776 2.96448 2.86208 5.0688 3.63008 5.83168L226.34496 140.8H121.16992c-4.23936 0 -7.68 3.43552 -7.68 7.68 s3.44064 7.68 7.68 7.68h120.53504L360.90368 275.36384zM243.31776 45.5168l-42.7776 42.77248l-11.47392 -36.02432l18.23232 -18.23232L243.31776 45.5168zM358.23104 247.74656 c-2.4576 2.46272 -6.44608 2.46272 -8.90368 0L220.14976 118.57408c-2.4576 -2.4576 -2.4576 -6.44608 0 -8.9088c2.4576 -2.4576 6.4512 -2.4576 8.9088 0l129.17248 129.17248 C360.69376 241.30048 360.69376 245.28896 358.23104 247.74656zM350.42816 1.83296c0 -4.61824 -3.75296 -8.37632 -8.3712 -8.37632h-152.4224l-13.76768 -4.38784 c-2.7648 -0.88064 -5.6064 -1.32608 -8.45312 -1.32608c-6.05696 0 -11.68896 2.07872 -16.29696 5.71392H71.99232c-4.61824 0 -8.38144 3.75296 -8.38144 8.37632V353.55648 c0 4.61824 3.75808 8.37632 8.38144 8.37632h31.40096v-13.2608c0 -4.62336 3.74784 -8.3712 8.37632 -8.3712s8.37632 3.74784 8.37632 8.3712v13.2608h48.14848v-13.2608 c0 -4.62336 3.74784 -8.3712 8.37632 -8.3712s8.37632 3.74784 8.37632 8.3712v13.2608h41.87136v-13.2608c0 -4.62336 3.74784 -8.3712 8.37632 -8.3712 s8.37632 3.74784 8.37632 8.3712v13.2608h46.05952v-13.2608c0 -4.62336 3.74784 -8.3712 8.3712 -8.3712c4.62848 0 8.38144 3.74784 8.38144 8.3712v13.2608h35.58912 c4.61312 0 8.3712 -3.75808 8.3712 -8.37632v-58.00448l8.77568 8.77568l16.34816 16.34816v32.88064c0 18.46784 -15.0272 33.49504 -33.49504 33.49504h-35.58912V407.29088 c0 4.62336 -3.74784 8.37632 -8.38144 8.37632c-4.61824 0 -8.3712 -3.74784 -8.3712 -8.37632v-20.23936H243.6608V407.29088c0 4.62336 -3.74784 8.37632 -8.37632 8.37632 s-8.37632 -3.74784 -8.37632 -8.37632v-20.23936h-41.87136V407.29088c0 4.62336 -3.74784 8.37632 -8.37632 8.37632s-8.37632 -3.74784 -8.37632 -8.37632v-20.23936h-48.14848V407.29088 c0 4.62336 -3.74784 8.37632 -8.37632 8.37632s-8.37632 -3.74784 -8.37632 -8.37632v-20.23936h-31.40096c-18.46784 0 -33.50016 -15.0272 -33.50016 -33.49504v-351.7184 c0 -18.46784 15.03232 -33.49504 33.50016 -33.49504h270.06976c18.46784 0 33.49504 15.0272 33.49504 33.49504V123.776l-25.12384 -25.12896V1.83296zM285.00992 286.72h-163.84 c-4.23936 0 -7.68 -3.43552 -7.68 -7.68s3.44064 -7.68 7.68 -7.68h163.84c4.23936 0 7.68 3.43552 7.68 7.68S289.24928 286.72 285.00992 286.72zM285.00992 224.79872h-163.84 c-4.23936 0 -7.68 -3.43552 -7.68 -7.68s3.44064 -7.68 7.68 -7.68h163.84c4.23936 0 7.68 3.43552 7.68 7.68S289.24928 224.79872 285.00992 224.79872z"/><glyph unicode="&#xE007;" glyph-name="eight" horiz-adv-x="512" d="M256.00896515496 448C114.62847137104 448 0 333.37152862896 0 191.97310453511c0 -141.34463316407 114.62847137104 -255.95517422518 256.00896515496 -255.95517422518 c141.38049378393 0 255.93724391525 114.62847137104 255.93724391525 255.95517422518C511.94620907022 333.37152862896 397.38945893889 448 256.00896515496 448zM256.04482577482 45.123866223078c-80.77604622658 0 -146.23960777447 65.409770618105 -146.23960777447 146.23960777447 c0 80.865697776221 65.46356154789 146.27546839433 146.23960777447 146.27546839433c80.829837156365 0 146.31132901418 -65.409770618105 146.31132901418 -146.27546839433C402.356154789 110.55156715111 336.87466293119 45.123866223078 256.04482577482 45.123866223078zM286.99254071091 198.84041323761v0.91444580633864c21.570162843635 10.650604097356 30.409805638242 27.989213797934 30.409805638242 44.682332341096c0 24.295569952723 -19.131640693399 49.828331290492 -62.038872351602 49.828331290492 c-37.366765890387 0 -65.983540535808 -21.892908422343 -65.983540535808 -54.113675363334c0 -17.302749080721 9.449273332166 -33.762773594817 30.140850989319 -43.732025914901v-0.91444580633864c-22.789423918753 -10.058903869725 -37.061950621607 -26.752022412887 -37.061950621607 -51.101383295395 c0 -27.63060759937 23.972824374015 -54.382630012257 70.179233059009 -54.382630012257c42.261740500788 0 72.043985291543 23.739730344948 72.043985291543 58.936928734022C324.68205218 173.61246716862 308.56270355454 190.61040098056 286.99254071091 198.84041323761zM253.5525126948 268.44587637892 c20.046086499737 0 28.258168446857 -14.326317632639 28.258168446857 -27.989213797934c0 -14.91801786027 -10.919558746279 -25.837576606549 -24.600385221502 -29.800175100683c-18.862686044476 5.1818595692523 -32.238697250919 14.882157240413 -32.238697250919 31.019436175801 C224.97159866923 255.98431097881 234.70775696025 268.44587637892 253.5525126948 268.44587637892zM253.87525827351 116.46856942742c-20.960532306076 0 -33.744843284889 15.204902819121 -33.13521274733 32.220766940991c0 16.065557695675 10.668534407284 29.172614253196 29.172614253196 34.354473822448 c22.179793381194 -6.096305375591 36.775065662756 -17.051724741726 36.775065662756 -37.115741551392C286.68772544213 128.93013482753 273.59859919454 116.46856942742 253.87525827351 116.46856942742z"/><glyph unicode="&#xE008;" glyph-name="group44" horiz-adv-x="621" d="M563.4030074063 279.46554948754c-19.458068377347 0 -35.239021470786 -15.780953093439 -35.239021470786 -35.162414902372s15.780953093439 -35.162414902372 35.239021470786 -35.162414902372c19.381461808932 0 35.162414902372 15.780953093439 35.162414902372 35.162414902372 S582.78446921523 279.46554948754 563.4030074063 279.46554948754zM57.837959153138 279.46554948754c-19.458068377347 0 -35.239021470786 -15.780953093439 -35.239021470786 -35.162414902372s15.780953093439 -35.162414902372 35.239021470786 -35.162414902372c19.381461808932 0 35.162414902372 15.780953093439 35.162414902372 35.162414902372 S77.219420962071 279.46554948754 57.837959153138 279.46554948754zM458.75843495175 343.43203411386c-28.880676292362 0 -52.283982943069 -23.479913219122 -52.283982943069 -52.360589511483c0 -28.842373008154 23.403306650707 -52.283982943069 52.283982943069 -52.283982943069s52.360589511483 23.441609934914 52.360589511483 52.283982943069 C511.11902446323 319.91381761053 487.6008079599 343.43203411386 458.75843495175 343.43203411386zM621.16435999102 25.170045634772H561.52614648014V134.90895488891c0 18.883519114237 -5.5539762100696 36.388119997008 -14.440338146181 51.632827111543 c5.2475499364106 1.5321313682951 10.610009725443 2.6046233261016 16.317199072342 2.6046233261016c31.791725892122 0 57.761352584724 -25.969626692601 57.761352584724 -57.837959153138V25.170045634772zM162.40592503928 343.43203411386c-28.880676292362 0 -52.360589511483 -23.479913219122 -52.360589511483 -52.360589511483 c0 -28.842373008154 23.479913219122 -52.283982943069 52.360589511483 -52.283982943069c28.804069723947 0 52.283982943069 23.441609934914 52.283982943069 52.283982943069C214.68990798234 319.91381761053 191.20999476322 343.43203411386 162.40592503928 343.43203411386zM57.837959153138 189.14640532655 c5.6688860626917 0 10.993042567517 -1.0724919578065 16.240592503928 -2.6046233261016C65.077279868332 171.29707488591 59.638213510885 153.79247400314 59.638213510885 134.90895488891v-109.73890925413H0V131.30844617341C0 163.17677863395 25.969626692601 189.14640532655 57.837959153138 189.14640532655zM310.5247250692 448 c-42.63155532281 0 -77.3726340989 -34.702775491883 -77.3726340989 -77.3726340989c0 -42.669858607017 34.702775491883 -77.410937383108 77.3726340989 -77.410937383108s77.410937383108 34.74107877609 77.410937383108 77.410937383108C387.97396573652 413.29722450812 353.19458367622 448 310.5247250692 448zM542.37450437645 -15.661255330291h-91.353332834593V151.30276052966c0 22.981970524426 -6.0519189047655 44.316899827934 -15.857559661854 63.468541931623c7.4691404204384 2.2215904840278 15.321313682951 3.7920251365303 23.556519787536 3.7920251365303c46.078850901474 0 83.65437270891 -37.498915239021 83.65437270891 -83.65437270891 V-15.661255330291zM170.02827859654 151.30276052966v-166.96401585995H78.789855614573V134.90895488891c0 46.117154185681 37.498915239021 83.65437270891 83.65437270891 83.65437270891c8.2352061045859 0 16.010772798683 -1.5704346525024 23.479913219122 -3.7920251365303 C176.11850078552 195.6196603576 170.02827859654 174.28473105409 170.02827859654 151.30276052966zM189.17992070023 -64h242.68960873794V151.30276052966c0 66.915837510287 -54.467270142889 121.34480436897 -121.34480436897 121.34480436897 c-66.954140794494 0 -121.34480436897 -54.428966858682 -121.34480436897 -121.34480436897V-64z"/><glyph unicode="&#xE009;" glyph-name="logout1" horiz-adv-x="512" d="M127.616 158.13632h203.08992c8.47872 0 15.37024 6.89664 15.37024 15.36c0 8.47872 -6.89152 15.37024 -15.37024 15.37024H127.62112l29.61408 29.60384 c5.9648 5.9904 5.9648 15.72864 -0.03072 21.74976c-2.90816 2.88256 -6.7584 4.47488 -10.8544 4.47488s-7.95136 -1.59232 -10.86464 -4.49536L79.744 184.45312 c-1.44896 -1.41824 -2.60096 -3.10784 -3.46112 -5.1712c-0.74752 -1.8688 -1.13152 -3.81952 -1.13152 -5.78048c0 -1.97632 0.37888 -3.92704 1.17248 -5.87264 c0.7936 -1.94048 1.95072 -3.64544 3.328 -4.98688l55.82336 -55.83872c2.89792 -2.90816 6.7584 -4.50048 10.86464 -4.50048c4.096 0 7.95648 1.59744 10.88512 4.51072 c5.94944 5.98016 5.95968 15.71328 -0.01536 21.72928L127.616 158.13632zM403.10272 311.05024h-172.7488c-28.22656 0 -51.18976 -22.97344 -51.18976 -51.20512l0.02048 -45.49632c0.18944 -8.27392 7.07072 -15.01184 15.34464 -15.01184 c5.02272 0 9.5232 2.47808 12.33408 6.272l3.03104 0.04608V259.84c0 11.2896 9.18016 20.47488 20.45952 20.47488h172.7488c11.27936 0 20.46464 -9.18528 20.46464 -20.47488v-172.73856 c0 -11.2896 -9.18528 -20.47488 -20.46464 -20.47488h-172.7488c-11.27936 0 -20.45952 9.18528 -20.45952 20.47488l-0.03584 54.32832h-2.9952 c-2.78016 3.76832 -7.24992 6.18496 -12.33408 6.18496c-8.36608 0 -15.10912 -6.57408 -15.36512 -15.37024v-45.14304c0 -28.23168 22.9632 -51.20512 51.18976 -51.20512h172.7488 c28.23168 0 51.2 22.97344 51.2 51.20512V259.84C454.30272 288.0768 431.3344 311.05024 403.10272 311.05024z"/><glyph unicode="&#xE00A;" glyph-name="multiple11" horiz-adv-x="512" d="M239.90272 170.38848c2.08896 -1.05984 4.42368 -1.61792 6.76352 -1.61792c3.16416 0 6.20544 0.98304 8.79616 2.86208l29.63968 21.59104 c3.83488 2.81088 6.12352 7.3216 6.12352 12.0576s-2.28864 9.25184 -6.13376 12.06272l-29.63456 21.58592c-4.45952 3.24096 -10.61888 3.7376 -15.56992 1.2288 c-5.02272 -2.57024 -8.15104 -7.66976 -8.15104 -13.30176v-43.16672C231.74144 178.05824 234.86464 172.96384 239.90272 170.38848zM241.98144 226.86208 c0 1.77152 0.98304 3.36896 2.56 4.16768c0.66048 0.33792 1.39776 0.51712 2.13504 0.51712c0.9984 0 1.95584 -0.31232 2.75968 -0.896l29.6192 -21.57056 c1.20832 -0.89088 1.93536 -2.30912 1.93536 -3.79904s-0.72704 -2.90816 -1.92512 -3.7888l-29.61408 -21.57568c-1.42848 -1.02912 -3.36896 -1.18272 -4.89984 -0.39936 c-1.5872 0.80896 -2.57024 2.41152 -2.57024 4.17792V226.86208zM213.16608 360.23296v-36.69504H175.616v-37.23264h-32.49152v-163.57888h231.23456v37.22752h32.49152v36.69504h37.55008v163.584H213.16608zM364.11904 206.89408v-10.24v-26.45504v-10.24 v-26.98752H153.36448V276.0704H175.616h10.24h27.31008h10.24h140.71296V206.89408zM396.61056 206.89408v-10.24v-26.45504h-22.25152v26.45504v10.24V286.3104H223.40608h-10.24H185.856v26.99264h27.31008h10.24 h173.20448V206.89408zM434.16064 206.89408h-27.31008V323.54304H223.40608v26.45504h210.75456V206.89408z"/><glyph unicode="&#xE00B;" glyph-name="papers1" horiz-adv-x="512" d="M8.792 0.52800000000002c1.784 -4.648 6.232 -7.712 11.208 -7.712h268.584c2.952 0 5.808 1.088 8.008 3.064l203.416 182.256 c3.704 3.32 4.976 8.576 3.2 13.224c-1.784 4.648 -6.232 7.712 -11.208 7.712h-35.672l43.68 39.136c3.704 3.32 4.976 8.576 3.2 13.224 c-1.784 4.648 -6.232 7.712 -11.208 7.712h-35.672l43.68 39.136c3.704 3.32 4.976 8.576 3.2 13.224c-1.784 4.648 -6.232 7.712 -11.208 7.712 h-35.672l43.68 39.136c3.704 3.32 4.976 8.576 3.2 13.224c-1.784 4.648 -6.232 7.712 -11.208 7.712H223.416 c-2.952 0 -5.808 -1.088 -8.008 -3.064L11.992 193.968c-3.704 -3.32 -4.976 -8.576 -3.2 -13.224c1.784 -4.648 6.232 -7.712 11.208 -7.712h35.672 l-43.68 -39.136c-3.704 -3.32 -4.976 -8.576 -3.2 -13.224C10.568 116.024 15.024 112.96 20 112.96h35.672l-43.68 -39.136 c-3.704 -3.32 -4.976 -8.576 -3.2 -13.224c1.784 -4.648 6.232 -7.712 11.208 -7.712h35.672l-43.68 -39.136 C8.288 10.432 7.016 5.168 8.792 0.52800000000002zM460.624 355.288l-40.264 -36.072l-13.392 -12l-13.392 -12l-40.264 -36.072l-13.392 -12l-13.392 -12 l-40.256 -36.072L284 197.032h-66.92h-31.616h-17.984h-17.984h-31.088h-17.976h-17.984H51.376L228 355.288H460.624zM122.72 173.032h17.984h17.984 h31.08h17.984h17.976h62.864c2.288 0 4.416 0.824 6.328 2.04c0.56 0.352 1.184 0.576 1.68 1.024l12.248 10.976l13.392 12l40.256 36.072 l13.392 12l13.392 12l40.264 36.072h31.08l-40.264 -36.072l-13.392 -12l-13.392 -12l-40.256 -36.072l-13.392 -12l-13.392 -12L284 136.96H185.464 h-17.976h-17.984h-31.08h-17.984h-17.984H51.376l40.256 36.072H122.72zM122.72 112.96h17.984h17.976h129.904c2.952 0 5.808 1.088 8.008 3.064 l65.904 59.048l13.392 12l13.392 12l40.256 36.072h31.088l-40.256 -36.072l-13.392 -12l-13.392 -12L284 76.888H118.424h-17.984h-17.984H51.376 l40.264 36.072H122.72zM288.584 52.888c2.952 0 5.808 1.088 8.008 3.064l132.952 119.12h31.08L284 16.816H51.376l40.264 36.072H288.584z"/><glyph unicode="&#xE00C;" glyph-name="payment" horiz-adv-x="538" d="M517.08257377493 164.60030683151c4.8515476942514 6.2377041783233 7.2080137171735 14.27741178594 5.0594711668622 22.478837650032l-63.693890443101 241.42225430918c-3.6964172908582 13.95397527299 -18.043136901002 22.317119393557 -31.974009565924 18.620702102698L19.475498601209 339.81048641819 C5.5908311524231 336.1371717354 -2.7954155762115 321.74424690912 0.85479649851096 307.8133742442l63.693890443101 -241.39915170111c3.6502120747225 -13.930872664922 18.06623950907 -22.294016785489 31.997112173992 -18.643804710766l143.81373522245 37.934482447433v-80.836025629456 c0 -45.21180398881 74.921757964083 -68.868874650302 148.98871942965 -68.868874650302c74.020756249436 0 149.03492464579 23.657070661493 149.03492464579 68.868874650302v122.58243840809C538.3831784135 142.16767439762 530.32036819782 154.55067232199 517.08257377493 164.60030683151zM470.99287067954 247.81590109196l6.6535511235448 -25.135637577836l-80.905333453659 -21.369912462774l-6.6073459074091 25.181842793972L470.99287067954 247.81590109196zM424.04837108564 406.85425503113l12.637126613122 -47.868603916614l-126.39436873928 -33.360166049995l-12.637126613122 47.868603916614 L424.04837108564 406.85425503113zM367.33146827904 220.48551574768l6.4687302590019 -24.581174984207c-29.917877447884 -1.3399512679361 -59.027163613392 -6.5611406912734 -82.407002978071 -15.478747405469l-4.9439581265229 18.666907318834L367.33146827904 220.48551574768zM85.664470715639 119.29609241043l-6.6073459074091 25.0894323617 l80.882230845592 21.393015070842l6.6535511235448 -25.228048010107L85.664470715639 119.29609241043zM182.7416298168 171.76211533255l80.836025629456 21.369912462774l6.1221911379839 -23.03330024366c-1.9637216857684 -1.2013356195289 -3.8119303311975 -2.4488764551936 -5.6139337604909 -3.7195198989261l-74.73693709954 -19.729627289956 L182.7416298168 171.76211533255zM511.39933219024 6.8556989441386c0 -26.360075805433 -54.61456547243 -47.706885660139 -122.05107842253 -47.706885660139c-67.367205125891 0 -122.02797581446 21.369912462774 -122.02797581446 47.706885660139V36.542550311344 c0 0.99341214691815 0.5775652016966 1.8944138615648 0.73928345817165 2.8416207923473c3.8581355473333 -24.997021929429 56.393466293656 -44.819059651656 121.28869235629 -44.819059651656c64.918328670698 0 117.47676202509 19.822037722227 121.31179496435 44.819059651656 c0.16171825647505 -0.94720693078242 0.73928345817165 -1.8482086454291 0.73928345817165 -2.8416207923473V6.8556989441386zM511.39933219024 65.259092139699c0 -26.336973197365 -54.61456547243 -47.683783052071 -122.05107842253 -47.683783052071c-67.367205125891 0 -122.02797581446 21.346809854706 -122.02797581446 47.683783052071 v29.686851367205c0 0.97030953885028 0.5775652016966 1.8944138615648 0.73928345817165 2.8416207923473c3.8581355473333 -24.973919321361 56.393466293656 -44.842162259724 121.28869235629 -44.842162259724c64.918328670698 0 117.47676202509 19.868242938363 121.31179496435 44.842162259724 c0.16171825647505 -0.94720693078242 0.73928345817165 -1.871311253497 0.73928345817165 -2.8416207923473V65.259092139699zM389.34825376771 79.790632614385c-67.367205125891 0 -122.02797581446 21.346809854706 -122.02797581446 47.660680444003s54.660770688566 47.660680444003 122.02797581446 47.660680444003 c67.436512950095 0 122.05107842253 -21.346809854706 122.05107842253 -47.660680444003S456.78476671781 79.790632614385 389.34825376771 79.790632614385z"/><glyph unicode="&#xE00D;" glyph-name="people7" horiz-adv-x="512" d="M201.96783157895 298.44210526316C225.25642105263 298.44210526316 244.13574736842 279.56277894737 244.13574736842 256.27418947368C244.13574736842 232.9856 225.25642105263 214.10694736842 201.96783157895 214.10694736842C178.67991578947 214.10694736842 159.80058947368 232.9856 159.80058947368 256.27418947368C159.80058947368 279.56277894737 178.67991578947 298.44210526316 201.96783157895 298.44210526316 ZM159.80058947368 156.75621052632C154.17802105263 153.94492631579 142.93355789474 131.456 142.93355789474 131.456C142.93355789474 131.456 137.31098947368 123.02282105263 134.49970526316 89.288757894737L109.19949473684 97.721936842105L117.63267368421 139.88917894737C117.63267368421 139.88917894737 134.49970526316 198.92412631579 168.23376842105 198.92345263158L235.70122105263 198.92345263158C269.43595789474 198.92412631579 286.30298947368 139.88917894737 286.30298947368 139.88917894737L294.73684210526 97.721263157895L269.43595789474 89.288084210526C266.62534736842 123.02214736842 261.00345263158 131.456 261.00345263158 131.456C261.00345263158 131.456 249.75831578947 153.94492631579 244.13574736842 156.75621052632L247.54324210526 80.165726315789C234.72303157895 75.164968421053 220.7744 72.421052631579 206.18509473684 72.421052631579C188.40050526316 72.421052631579 171.56850526316 76.498863157895 156.57296842105 83.769936842105L159.80058947368 156.75621052632 ZM262.73684210526 286.31578947368L384 286.31578947368L384 266.10526315789L262.73684210526 266.10526315789L262.73684210526 286.31578947368 ZM262.73684210526 245.89473684211L384 245.89473684211L384 225.68421052632L262.73684210526 225.68421052632L262.73684210526 245.89473684211 ZM276.21052631579 205.47368421053L384 205.47368421053L384 185.26315789474L276.21052631579 185.26315789474L276.21052631579 205.47368421053 ZM296.42105263158 165.05263157895L384 165.05263157895L384 144.84210526316L296.42105263158 144.84210526316L296.42105263158 165.05263157895 ZM309.89473684211 124.63157894737L384 124.63157894737L384 104.42105263158L309.89473684211 104.42105263158L309.89473684211 124.63157894737 Z"/><glyph unicode="&#xE00E;" glyph-name="personal9" horiz-adv-x="512" d="M391.28064 93.3888l8.448 36.58752l-12.97408 2.99008c-0.2048 1.64864 -0.48128 3.29728 -0.82944 4.93568l11.30496 7.04512l-19.89632 31.8464l-11.30496 -7.0656 c-1.31072 1.03424 -2.6624 2.00704 -4.05504 2.9184l3.00032 12.99456l-36.59776 8.42752l-2.97984 -12.99456c-1.65888 -0.2048 -3.30752 -0.48128 -4.94592 -0.83968l-7.08608 11.32544 l-22.7328 -14.2336c-8.00768 3.88096 -16.47616 7.1168 -25.38496 9.37984c22.21056 14.94016 37.49888 44.38016 37.49888 70.912c0 37.4272 -30.35136 67.77856 -67.76832 67.77856 s-67.76832 -30.34112 -67.76832 -67.77856c0 -26.53184 15.28832 -55.97184 37.49888 -70.912c-53.10464 -13.45536 -92.43648 -59.55584 -92.43648 -93.70624 c0 -20.18304 61.34784 -30.26944 122.69568 -30.26944l-34.36544 34.36544l28.93824 69.95968h-0.29696l-11.24352 12.89216c5.4272 -1.9456 11.10016 -3.1232 16.97792 -3.1232 c5.86752 0 11.53024 1.16736 16.95744 3.11296l-11.24352 -12.87168h-0.27648l28.93824 -69.95968l-34.36544 -34.36544c22.69184 0 45.38368 1.37216 64.96256 4.13696l35.6864 -8.27392 l3.00032 12.99456c1.65888 0.2048 3.30752 0.47104 4.94592 0.83968l7.05536 -11.30496l31.81568 19.89632l-7.05536 11.29472c1.04448 1.31072 2.00704 2.67264 2.9184 4.07552 L391.28064 93.3888zM373.05344 108.11392c-2.39616 -5.4272 -5.9392 -10.43456 -10.45504 -14.63296l5.75488 -9.216l-14.44864 -9.03168l-5.75488 9.22624 c-5.76512 -2.23232 -11.79648 -3.2256 -17.72544 -2.97984l-2.44736 -10.58816l-16.59904 3.85024l2.42688 10.55744c-5.43744 2.41664 -10.43456 5.92896 -14.62272 10.45504l-9.22624 -5.76512 l-9.04192 14.46912l9.216 5.75488c-2.22208 5.77536 -3.20512 11.78624 -3.00032 17.74592l-10.56768 2.43712l3.85024 16.60928l10.56768 -2.43712 c2.41664 5.43744 5.94944 10.43456 10.47552 14.6432l-5.75488 9.216l14.41792 9.03168l5.77536 -9.22624c5.75488 2.22208 11.78624 3.20512 17.73568 2.97984l2.42688 10.58816 l16.62976 -3.82976l-2.43712 -10.55744c5.43744 -2.43712 10.40384 -5.95968 14.62272 -10.47552l9.20576 5.75488l9.04192 -14.46912l-9.216 -5.74464 c2.21184 -5.75488 3.20512 -11.79648 2.99008 -17.73568l10.55744 -2.43712l-3.84 -16.62976L373.05344 108.11392zM234.96704 62.73024L234.97728 62.74048L234.9568 62.74048ZM307.2 126.33088C307.2 141.87079168 316.36920832 151.04 332.00128 151.04C338.99079168 151.04 348.16 141.87079168 348.16 126.33088C348.16 119.24920832 338.99079168 110.08 332.00128 110.08C316.36920832 110.08 307.2 119.24920832 307.2 126.33088Z"/><glyph unicode="&#xE00F;" glyph-name="seo1" horiz-adv-x="570" d="M534.97827643829 448H34.687419431845C15.595894008116 448 0 432.37966101695 0 413.33702554309v-359.70780615899c0 -19.018190498926 15.595894008116 -34.662974456911 34.687419431845 -34.662974456911h500.29085700645c19.067080448794 0 34.662974456911 15.644783957985 34.662974456911 34.662974456911 V413.33702554309C569.6412508952 432.37966101695 554.04535688709 448 534.97827643829 448zM526.25142038673 79.12532824063H43.389830508475V399.37894485557h482.86158987825V79.12532824063zM220.64034375746 2.5147767963715L155.17670088327 -64L415.41790403438 -64L349.95426116018 2.5147767963715ZM117.11587491048 143.34227739317c12.784721890666 0 23.1982812127 10.3891143471 23.1982812127 23.173836237766c0 2.3222726187634 -0.68445929816185 4.4245404631177 -1.320028646455 6.5512532824063c29.651754595369 23.907185485796 82.037335879685 66.050322272619 105.92007639055 84.457388398186 c3.7645261398902 -2.6645022678444 8.1401766531392 -4.5712103127238 13.102506564813 -4.5712103127238c4.1312007639055 0 7.7979470040582 1.3689185963237 11.146908570064 3.2511816662688c15.351444258773 -13.053616614944 41.458677488661 -35.249653855335 59.987968488899 -51.016662687992 c-0.24444974934352 -1.3444736213894 -0.78223919789926 -2.5422773931726 -0.78223919789926 -3.960085939365c0 -12.8091668656 10.413559322034 -23.1982812127 23.222726187634 -23.1982812127s23.222726187634 10.3891143471 23.222726187634 23.1982812127c0 2.2733826688947 -0.68445929816185 4.3512055383146 -1.2955836715206 6.4290284077345 l59.987968488899 54.170064454524c3.2267366913344 -1.6867032704703 6.6979231320124 -2.8845070422535 10.609119121509 -2.8845070422535c12.8091668656 0 23.1982812127 10.3891143471 23.1982812127 23.1982812127s-10.3891143471 23.1982812127 -23.1982812127 23.1982812127 S420.94246836954 294.95001193602 420.94246836954 282.11640009549c0 -3.055621866794 0.6600143232275 -5.9645738839819 1.735593220339 -8.6290761518262c-16.769252804965 -15.131439484364 -42.63203628551 -38.500835521604 -58.765719742182 -53.070040582478 c-3.5934113153497 2.3222726187634 -7.6512771544521 4.0334208641681 -12.295822391979 4.0334208641681c-5.4756743852948 0 -10.266889472428 -2.1756027691573 -14.226975411793 -5.3290045356887c-15.326999283839 13.02917164001 -40.114203867271 34.100740033421 -57.739030794939 49.085509668179 c0.92890904750537 2.4933874433039 1.5889233707329 5.1089997612795 1.5889233707329 7.9446168536644c0 12.8091668656 -10.3891143471 23.1982812127 -23.1982812127 23.1982812127S234.84287419432 288.96099307711 234.84287419432 276.15182621151c0 -2.8356170923848 0.68445929816185 -5.4756743852948 1.6133683456672 -7.9690618285987 l-106.48231081404 -82.844020052518c-3.7156361900215 2.5422773931726 -7.9935068035331 4.4000954881833 -12.833611840535 4.4000954881833c-12.8091668656 0 -23.1982812127 -10.3891143471 -23.1982812127 -23.1982812127C93.91759369778 153.73139174027 104.30670804488 143.34227739317 117.11587491048 143.34227739317z"/><glyph unicode="&#xE010;" glyph-name="seo2" horiz-adv-x="446" d="M385.27972538082 448H0V-11.822355717657h385.27972538082V448zM362.12383608668 11.333533576486c-21.002874919545 0 -317.94310233855 0 -338.96794679253 0c0 21.376357004935 0 392.17815919331 0 413.48860759494 c21.046813988415 0 317.96507187299 0 338.96794679253 0C362.12383608668 403.48972323536 362.12383608668 32.687921046986 362.12383608668 11.333533576486zM63.579832653937 373.32555245655l263.37077880283 0l0 -24.298305084746l-241.66487878138 0ZM63.579832653937 296.76172495173l263.37077880283 0l0 -24.276335550311l-241.66487878138 0ZM401.14172924265 395.88826432096L401.14172924265 372.71040549238L422.95747693628 372.71040549238L422.95747693628 -40.756232568118L83.967560609311 -40.756232568118L83.967560609311 -24.696502896374L60.767732246299 -24.696502896374L60.767732246299 -63.978030465565L446.15730529929 -63.978030465565L446.15730529929 395.88826432096ZM73.422184080669 116.63351212186c4.5696631624115 0 8.7438747049989 1.2962025316456 12.588543231066 3.1855824930272l33.042179789745 -27.022527354645c-0.17575627547737 -1.2742329972109 -0.7469641707788 -2.3727097189444 -0.7469641707788 -3.6908817850247 c0 -15.99382106844 12.962025316456 -28.933876850461 28.933876850461 -28.933876850461s28.933876850461 12.962025316456 28.933876850461 28.933876850461c0 4.5916326968462 -1.3181720660802 8.7658442394336 -3.2075520274619 12.632482299936c15.883973396267 23.814975327183 36.161853679468 54.264750053637 48.332975756275 72.521433168848 c1.867410426947 -0.39545161982407 3.6249731817207 -1.1424157906029 5.602231280841 -1.1424157906029c6.9423728813559 0 13.071872988629 2.7681613387685 18.058957305299 6.8544947436172c10.874919545162 -6.3491954516198 25.001330186655 -14.587770864621 37.172452263463 -21.68393048702 c-0.021969534434671 -0.41742115425874 -0.24166487878138 -0.72499463634413 -0.24166487878138 -1.1424157906029c0 -15.99382106844 12.962025316456 -28.933876850461 28.933876850461 -28.933876850461s28.911907316027 12.962025316456 28.911907316027 28.933876850461s-12.940055782021 28.933876850461 -28.911907316027 28.933876850461 c-7.074190087964 0 -13.31353786741 -2.8340699420725 -18.366530787385 -7.0522205535293l-36.974726453551 21.574082814847c0.021969534434671 0.48332975756275 0.28560394765072 0.9007509118215 0.28560394765072 1.3840806693843c0 15.971851534006 -12.940055782021 28.889937781592 -28.889937781592 28.889937781592 s-28.867968247157 -12.940055782021 -28.867968247157 -28.889937781592c0 -5.3605664020596 1.8454408925123 -10.084016305514 4.3719373524995 -14.390045054709c-15.180948294357 -22.804376743188 -34.99746835443 -52.529156833298 -47.410255310019 -71.181291568333 C152.46856897661 117.16078094829 149.9860115855 118.01759279125 147.23981978116 118.01759279125c-5.9757133662304 0 -11.226432096117 -2.2628620467711 -15.840034327398 -5.3605664020596c-9.1612958592577 7.5135807766574 -20.497575627548 16.784724308088 -30.625531001931 25.067238789959 c0.72499463634413 2.5484659944218 1.5818064792963 5.0529929199743 1.5818064792963 7.8211542587428c0 16.015790602875 -13.02793391976 28.933876850461 -28.933876850461 28.911907316027c-16.015790602875 0 -28.955846384896 -12.918086247586 -28.955846384896 -28.911907316027 C44.444368161339 129.59553743832 57.38442394336 116.63351212186 73.422184080669 116.63351212186z"/><glyph unicode="&#xE011;" glyph-name="small67" horiz-adv-x="512" d="M496 448h-64c-3.872 0 -7.616 -1.408 -10.56 -3.968L200.576 250.4C189.152 252.8 171.488 256 160 256c-88.224 0 -160 -71.776 -160 -160s71.776 -160 160 -160 s160 71.776 160 160c0 26.176 -4.992 43.776 -10.656 58.368l54.464 18.496c6.624 2.24 11.008 8.544 10.848 15.52l-1.344 60.736l61.12 4.256 c8.192 0.576 14.624 7.264 14.88 15.456l2.24 72.928l47.872 10.624C506.784 353.984 512 360.512 512 368v64C512 440.832 504.8 448 496 448z"/><glyph unicode="&#xE012;" glyph-name="tools" horiz-adv-x="529" d="M347.75457281778 213.49633402794c10.985258933395 7.3300918422474 23.946283862005 10.451802114687 36.630701551285 9.0292505981323l144.50752489002 144.54704020993L447.96542409508 448l-144.52728254997 -144.54704020993 c1.4620668364591 -12.842478968897 -1.7781893956934 -25.961565177124 -9.4046461372231 -37.085127730184L347.75457281778 213.49633402794zM95.666589488307 37.455583854287L90.430809600988 42.691363741607L63.026935247357 20.543026935247L16.873041599136 -52.184919348615L28.688122250521 -64L101.47534151424 -17.846106351779L123.60392066065 9.4787373620437L118.34838311338 14.793547889172L210.26101721077 106.72593964652L187.42116230609 129.24967199197ZM221.36482210388 292.32939723701c10.609863394304 37.934707108127 0.98788299760747 80.33464536544 -28.786910550282 110.16871189319C162.90190630547 432.05556841862 120.99590954696 441.75657945512 83.27853669831 431.52211159991l63.876514625299 -63.856756965347 L130.40055568419 305.11260322606L67.768773635873 288.35810758663L3.9120166705256 352.17534923208c-10.194952535309 -37.697615188701 -0.51369915875588 -79.60361194721 29.103033109516 -109.24010187543c31.039283784827 -31.059041444779 75.770625916493 -40.16732268272 114.89079262175 -27.443389673536l0.35563787913869 -0.35563787913869 l262.75711970364 -262.75711970364c10.392529134831 -10.372771474878 24.025314501814 -15.62830902215 37.638342208845 -15.62830902215c13.632785366983 0 27.226055414062 5.2555375472717 37.658099868797 15.62830902215c20.765300609709 20.725785289805 20.765300609709 54.412595508219 0 75.296442077641L221.36482210388 292.32939723701zM453.24071930231 -38.690437601297c-11.182835532917 0 -20.251601450953 9.1082812379409 -20.251601450953 20.330632090762c0 11.261866172725 9.0687659180366 20.330632090762 20.251601450953 20.330632090762c11.261866172725 0 20.370147410666 -9.0687659180366 20.370147410666 -20.330632090762 C473.63062437293 -29.582156363356 464.52234313498 -38.690437601297 453.24071930231 -38.690437601297z"/></font></defs></svg>
